%YAML 1.1
%TAG !u! tag:unity3d.com,2011:
--- !u!114 &11400000
MonoBehaviour:
  m_ObjectHideFlags: 0
  m_PrefabParentObject: {fileID: 0}
  m_PrefabInternal: {fileID: 0}
  m_GameObject: {fileID: 0}
  m_Enabled: 1
  m_EditorHideFlags: 0
  m_Script: {fileID: 11500000, guid: 6e68a309a3d367948afb6eed0d165c5a, type: 3}
  m_Name: boost_I
  m_EditorClassIdentifier: 
  title: Boost I
  color: {r: 0, g: 0.54901963, b: 1, a: 1}
  sprite: {fileID: 21300000, guid: b6b2668dfd664a142ad721e6d9cbe393, type: 3}
  sound: {fileID: 8300000, guid: feadc4a2b8875ce41a4bff3880ccbb92, type: 3}
  duration: 0
  cooldown: 4
  boost_force: 20
