%YAML 1.1
%TAG !u! tag:unity3d.com,2011:
--- !u!114 &11400000
MonoBehaviour:
  m_ObjectHideFlags: 0
  m_PrefabParentObject: {fileID: 0}
  m_PrefabInternal: {fileID: 0}
  m_GameObject: {fileID: 0}
  m_Enabled: 1
  m_EditorHideFlags: 0
  m_Script: {fileID: 11500000, guid: dc330bb9fd3416147b9f1afa120d32a3, type: 3}
  m_Name: bullet_time_II
  m_EditorClassIdentifier: 
  title: Bullet Time II
  color: {r: 0.23529412, g: 0.78431374, b: 0, a: 1}
  sprite: {fileID: 21300000, guid: f371872769e97cc4581dc1aca9e9f006, type: 3}
  sound: {fileID: 8300000, guid: ef93a90ddd9031140a0b98f6e706921a, type: 3}
  duration: 1.2
  cooldown: 8
  time_scale: 0.4
